Assignment 03 - Web Scraping and Text Mining
…
Text_mining_3

pubmed %>%
  unnest_tokens(document, abstract) %>%
  count(document,term) %>%
  bind_tf_idf(document, term, n) %>%
  group_by(term) %>%
  arrange(desc(tf_idf))

## # A tibble: 39,240 x 6
## # Groups:   term [5]
##    document     term                n      tf   idf  tf_idf
##    <chr>        <chr>           <int>   <dbl> <dbl>   <dbl>
##  1 covid        covid            7275 0.0371  1.61  0.0597 
##  2 prostate     prostate cancer  3832 0.0312  1.61  0.0502 
##  3 eclampsia    preeclampsia     2005 0.0143  1.61  0.0230 
##  4 preeclampsia preeclampsia     1863 0.0133  1.61  0.0214 
##  5 meningitis   meningitis        429 0.00919 1.61  0.0148 
##  6 cf           cystic fibrosis   625 0.0127  0.916 0.0117 
##  7 fibrosis     cystic fibrosis   867 0.0176  0.511 0.00901
##  8 cystic       cystic fibrosis   862 0.0175  0.511 0.00896
##  9 meningeal    meningitis        219 0.00469 1.61  0.00755
## 10 pandemic     covid             800 0.00408 1.61  0.00657
## #  with 39,230 more rows
…
